C:\Users\henrique.laporta\Desktop\repositorios\henrique-laporta\modulo03\revisao_geral\PetshopJPA\src\main\java\br\com\dbc\petshopjpa\dao\PersistenceUtils.java
C:\Users\henrique.laporta\Desktop\repositorios\henrique-laporta\modulo03\revisao_geral\PetshopJPA\src\main\java\br\com\dbc\petshopjpa\entity\Animal.java
C:\Users\henrique.laporta\Desktop\repositorios\henrique-laporta\modulo03\revisao_geral\PetshopJPA\src\main\java\br\com\dbc\petshopjpa\service\ClienteService.java
C:\Users\henrique.laporta\Desktop\repositorios\henrique-laporta\modulo03\revisao_geral\PetshopJPA\src\main\java\br\com\dbc\petshopjpa\dao\AnimalDAO.java
C:\Users\henrique.laporta\Desktop\repositorios\henrique-laporta\modulo03\revisao_geral\PetshopJPA\src\main\java\br\com\dbc\petshopjpa\entity\Cliente.java
C:\Users\henrique.laporta\Desktop\repositorios\henrique-laporta\modulo03\revisao_geral\PetshopJPA\src\main\java\br\com\dbc\petshopjpa\dao\ClienteDAO.java
C:\Users\henrique.laporta\Desktop\repositorios\henrique-laporta\modulo03\revisao_geral\PetshopJPA\src\main\java\br\com\dbc\petshopjpa\entity\AbstractEntity.java
C:\Users\henrique.laporta\Desktop\repositorios\henrique-laporta\modulo03\revisao_geral\PetshopJPA\src\main\java\br\com\dbc\petshopjpa\service\AbstractCrudService.java
C:\Users\henrique.laporta\Desktop\repositorios\henrique-laporta\modulo03\revisao_geral\PetshopJPA\src\main\java\br\com\dbc\petshopjpa\dao\AbstractDAO.java
